Data Cleaning
…
## `summarise()` has grouped output by 'new_id', 'organism', 'genotype'. You
## can override using the `.groups` argument.

## # A tibble: 383 × 5
## # Groups:   new_id, organism, genotype [161]
##    new_id     organism genotype time_point_str n_per_org_gen_tp
##    <chr>      <chr>    <chr>    <chr>                     <int>
##  1 G12_A3_G12 hyb      WT       1 h, low N                    3
##  2 G12_A4_G12 hyb      WT       1 h, low N                    3
##  3 G12_A5_G12 hyb      WT       1 h, low N                    3
##  4 G12_A6_G12 hyb      WT       1 h, low N                    3
##  5 G12_B3_G12 hyb      WT       1 h, low N                    3
##  6 G12_B4_G12 hyb      WT       1 h, low N                    3
##  7 G12_B5_G12 hyb      WT       1 h, low N                    3
##  8 G12_B6_G12 hyb      WT       1 h, low N                    3
##  9 G12_C3_G12 hyb      WT       1 h, low N                    3
## 10 G12_C4_G12 hyb      WT       1 h, low N                    3
## # ℹ 373 more rows
…
