Fig_TFdel
…
## < table of extent 0 >

nrow(test) # should have same nrow as Scer-Spar exclusive ring of Venn

## [1] 1486

# nEffects that are shared between all three yeasts:
filter(plotdf, checkOrgs(.query = list("cer", "hyb", "par"), 
                         .orgs = orgs, .excludeOthers = TRUE)) |> 
  select(gene_name, deletion) |> unique() # should be same nrow as Venn center count

## # A tibble: 648 × 2
## # Groups:   gene_name, deletion [648]
##    gene_name deletion
##    <chr>     <chr>   
##  1 YAL005C   INO4    
##  2 YAL012W   MET28   
##  3 YAL022C   SUM1    
##  4 YAL038W   GCR2    
##  5 YAL060W   GCR2    
##  6 YAL062W   DAL80   
##  7 YAL067C   MET28   
##  8 YAR015W   URE2    
##  9 YBL002W   ROX1    
## 10 YBL021C   HAP3    
## # ℹ 638 more rows
…
